Multiplier/simulation/qsim/multiplier.msim.vcd
$comment
	File created using the following command:
		vcd file multiplier.msim.vcd -direction
$end
$date
	Sun Jun 04 22:18:25 2017
$end
$version
	ModelSim Version 10.1d
$end
$timescale
	1ps
$end
$scope module multiplier_vlg_vec_tst $end
$var reg 8 ! A [7:0] $end
$var reg 8 " B [7:0] $end
$var reg 1 # clk $end
$var reg 1 $ loadA $end
$var reg 1 % loadB $end
$var reg 1 & rst $end
$var wire 1 ' S [15] $end
$var wire 1 ( S [14] $end
$var wire 1 ) S [13] $end
$var wire 1 * S [12] $end
$var wire 1 + S [11] $end
$var wire 1 , S [10] $end
$var wire 1 - S [9] $end
$var wire 1 . S [8] $end
$var wire 1 / S [7] $end
$var wire 1 0 S [6] $end
$var wire 1 1 S [5] $end
$var wire 1 2 S [4] $end
$var wire 1 3 S [3] $end
$var wire 1 4 S [2] $end
$var wire 1 5 S [1] $end
$var wire 1 6 S [0] $end
$var wire 1 7 sampler $end
$scope module i1 $end
$var wire 1 8 gnd $end
$var wire 1 9 vcc $end
$var wire 1 : unknown $end
$var tri1 1 ; devclrn $end
$var tri1 1 < devpor $end
$var tri1 1 = devoe $end
$var wire 1 > S[0]~output_o $end
$var wire 1 ? S[1]~output_o $end
$var wire 1 @ S[2]~output_o $end
$var wire 1 A S[3]~output_o $end
$var wire 1 B S[4]~output_o $end
$var wire 1 C S[5]~output_o $end
$var wire 1 D S[6]~output_o $end
$var wire 1 E S[7]~output_o $end
$var wire 1 F S[8]~output_o $end
$var wire 1 G S[9]~output_o $end
$var wire 1 H S[10]~output_o $end
$var wire 1 I S[11]~output_o $end
$var wire 1 J S[12]~output_o $end
$var wire 1 K S[13]~output_o $end
$var wire 1 L S[14]~output_o $end
$var wire 1 M S[15]~output_o $end
$var wire 1 N clk~input_o $end
$var wire 1 O clk~inputclkctrl_outclk $end
$var wire 1 P A[0]~input_o $end
$var wire 1 Q loadB~input_o $end
$var wire 1 R loadA~input_o $end
$var wire 1 S rst~input_o $end
$var wire 1 T count~0_combout $end
$var wire 1 U count~1_combout $end
$var wire 1 V Add1~1_cout $end
$var wire 1 W Add1~2_combout $end
$var wire 1 X Add1~3 $end
$var wire 1 Y Add1~4_combout $end
$var wire 1 Z Add1~5 $end
$var wire 1 [ Add1~6_combout $end
$var wire 1 \ count[3]~2_combout $end
$var wire 1 ] Add1~7 $end
$var wire 1 ^ Add1~8_combout $end
$var wire 1 _ Add1~9 $end
$var wire 1 ` Add1~10_combout $end
$var wire 1 a Add1~11 $end
$var wire 1 b Add1~12_combout $end
$var wire 1 c Add1~13 $end
$var wire 1 d Add1~14_combout $end
$var wire 1 e Add1~15 $end
$var wire 1 f Add1~16_combout $end
$var wire 1 g count[8]~feeder_combout $end
$var wire 1 h Add1~17 $end
$var wire 1 i Add1~18_combout $end
$var wire 1 j Add1~19 $end
$var wire 1 k Add1~20_combout $end
$var wire 1 l count[10]~feeder_combout $end
$var wire 1 m Add1~21 $end
$var wire 1 n Add1~22_combout $end
$var wire 1 o Add1~23 $end
$var wire 1 p Add1~24_combout $end
$var wire 1 q count[12]~feeder_combout $end
$var wire 1 r WideOr0~2_combout $end
$var wire 1 s Add1~25 $end
$var wire 1 t Add1~26_combout $end
$var wire 1 u Add1~27 $end
$var wire 1 v Add1~28_combout $end
$var wire 1 w Add1~29 $end
$var wire 1 x Add1~30_combout $end
$var wire 1 y count[15]~feeder_combout $end
$var wire 1 z Add1~31 $end
$var wire 1 { Add1~32_combout $end
$var wire 1 | WideOr0~3_combout $end
$var wire 1 } WideOr0~1_combout $end
$var wire 1 ~ WideOr0~0_combout $end
$var wire 1 !! WideOr0~4_combout $end
$var wire 1 "! Add1~33 $end
$var wire 1 #! Add1~34_combout $end
$var wire 1 $! Add1~35 $end
$var wire 1 %! Add1~36_combout $end
$var wire 1 &! Add1~37 $end
$var wire 1 '! Add1~38_combout $end
$var wire 1 (! Add1~39 $end
$var wire 1 )! Add1~40_combout $end
$var wire 1 *! WideOr0~5_combout $end
$var wire 1 +! Add1~41 $end
$var wire 1 ,! Add1~42_combout $end
$var wire 1 -! Add1~43 $end
$var wire 1 .! Add1~44_combout $end
$var wire 1 /! Add1~45 $end
$var wire 1 0! Add1~46_combout $end
$var wire 1 1! Add1~47 $end
$var wire 1 2! Add1~48_combout $end
$var wire 1 3! WideOr0~6_combout $end
$var wire 1 4! Add1~49 $end
$var wire 1 5! Add1~50_combout $end
$var wire 1 6! Add1~51 $end
$var wire 1 7! Add1~52_combout $end
$var wire 1 8! Add1~53 $end
$var wire 1 9! Add1~54_combout $end
$var wire 1 :! Add1~55 $end
$var wire 1 ;! Add1~56_combout $end
$var wire 1 <! WideOr0~7_combout $end
$var wire 1 =! Add1~57 $end
$var wire 1 >! Add1~58_combout $end
$var wire 1 ?! count[29]~feeder_combout $end
$var wire 1 @! Add1~59 $end
$var wire 1 A! Add1~60_combout $end
$var wire 1 B! count[30]~feeder_combout $end
$var wire 1 C! Add1~61 $end
$var wire 1 D! Add1~62_combout $end
$var wire 1 E! count[31]~feeder_combout $end
$var wire 1 F! WideOr0~8_combout $end
$var wire 1 G! WideOr0~9_combout $end
$var wire 1 H! WideOr1~combout $end
$var wire 1 I! regA~0_combout $end
$var wire 1 J! regA[14]~1_combout $end
$var wire 1 K! S[0]~16_combout $end
$var wire 1 L! B[0]~input_o $end
$var wire 1 M! B[4]~input_o $end
$var wire 1 N! B[5]~input_o $end
$var wire 1 O! B[6]~input_o $end
$var wire 1 P! B[7]~input_o $end
$var wire 1 Q! regB~7_combout $end
$var wire 1 R! regB~6_combout $end
$var wire 1 S! regB~5_combout $end
$var wire 1 T! regB~4_combout $end
$var wire 1 U! B[3]~input_o $end
$var wire 1 V! regB~3_combout $end
$var wire 1 W! B[2]~input_o $end
$var wire 1 X! regB~2_combout $end
$var wire 1 Y! B[1]~input_o $end
$var wire 1 Z! regB~1_combout $end
$var wire 1 [! regB~0_combout $end
$var wire 1 \! S[0]~18_combout $end
$var wire 1 ]! S[0]~19_combout $end
$var wire 1 ^! S[0]~reg0_q $end
$var wire 1 _! A[1]~input_o $end
$var wire 1 `! regA~2_combout $end
$var wire 1 a! S[0]~17 $end
$var wire 1 b! S[1]~20_combout $end
$var wire 1 c! S[1]~reg0_q $end
$var wire 1 d! A[2]~input_o $end
$var wire 1 e! regA~3_combout $end
$var wire 1 f! S[1]~21 $end
$var wire 1 g! S[2]~22_combout $end
$var wire 1 h! S[2]~reg0_q $end
$var wire 1 i! A[3]~input_o $end
$var wire 1 j! regA~4_combout $end
$var wire 1 k! S[2]~23 $end
$var wire 1 l! S[3]~24_combout $end
$var wire 1 m! S[3]~reg0_q $end
$var wire 1 n! A[4]~input_o $end
$var wire 1 o! regA~5_combout $end
$var wire 1 p! S[3]~25 $end
$var wire 1 q! S[4]~26_combout $end
$var wire 1 r! S[4]~reg0_q $end
$var wire 1 s! A[5]~input_o $end
$var wire 1 t! regA~6_combout $end
$var wire 1 u! S[4]~27 $end
$var wire 1 v! S[5]~28_combout $end
$var wire 1 w! S[5]~reg0_q $end
$var wire 1 x! A[6]~input_o $end
$var wire 1 y! regA~7_combout $end
$var wire 1 z! S[5]~29 $end
$var wire 1 {! S[6]~30_combout $end
$var wire 1 |! S[6]~reg0_q $end
$var wire 1 }! A[7]~input_o $end
$var wire 1 ~! regA~8_combout $end
$var wire 1 !" S[6]~31 $end
$var wire 1 "" S[7]~32_combout $end
$var wire 1 #" S[7]~reg0_q $end
$var wire 1 $" regA~9_combout $end
$var wire 1 %" S[7]~33 $end
$var wire 1 &" S[8]~34_combout $end
$var wire 1 '" S[8]~reg0_q $end
$var wire 1 (" regA~10_combout $end
$var wire 1 )" S[8]~35 $end
$var wire 1 *" S[9]~36_combout $end
$var wire 1 +" S[9]~reg0_q $end
$var wire 1 ," regA~11_combout $end
$var wire 1 -" S[9]~37 $end
$var wire 1 ." S[10]~38_combout $end
$var wire 1 /" S[10]~reg0_q $end
$var wire 1 0" regA~12_combout $end
$var wire 1 1" S[10]~39 $end
$var wire 1 2" S[11]~40_combout $end
$var wire 1 3" S[11]~reg0_q $end
$var wire 1 4" regA~13_combout $end
$var wire 1 5" S[11]~41 $end
$var wire 1 6" S[12]~42_combout $end
$var wire 1 7" S[12]~reg0_q $end
$var wire 1 8" regA~14_combout $end
$var wire 1 9" S[12]~43 $end
$var wire 1 :" S[13]~44_combout $end
$var wire 1 ;" S[13]~reg0_q $end
$var wire 1 <" regA~15_combout $end
$var wire 1 =" S[13]~45 $end
$var wire 1 >" S[14]~46_combout $end
$var wire 1 ?" S[14]~reg0_q $end
$var wire 1 @" regA~16_combout $end
$var wire 1 A" S[14]~47 $end
$var wire 1 B" S[15]~48_combout $end
$var wire 1 C" S[15]~reg0_q $end
$var wire 1 D" count [31] $end
$var wire 1 E" count [30] $end
$var wire 1 F" count [29] $end
$var wire 1 G" count [28] $end
$var wire 1 H" count [27] $end
$var wire 1 I" count [26] $end
$var wire 1 J" count [25] $end
$var wire 1 K" count [24] $end
$var wire 1 L" count [23] $end
$var wire 1 M" count [22] $end
$var wire 1 N" count [21] $end
$var wire 1 O" count [20] $end
$var wire 1 P" count [19] $end
$var wire 1 Q" count [18] $end
$var wire 1 R" count [17] $end
$var wire 1 S" count [16] $end
$var wire 1 T" count [15] $end
$var wire 1 U" count [14] $end
$var wire 1 V" count [13] $end
$var wire 1 W" count [12] $end
$var wire 1 X" count [11] $end
$var wire 1 Y" count [10] $end
$var wire 1 Z" count [9] $end
$var wire 1 [" count [8] $end
$var wire 1 \" count [7] $end
$var wire 1 ]" count [6] $end
$var wire 1 ^" count [5] $end
$var wire 1 _" count [4] $end
$var wire 1 `" count [3] $end
$var wire 1 a" count [2] $end
$var wire 1 b" count [1] $end
$var wire 1 c" count [0] $end
$var wire 1 d" regB [7] $end
$var wire 1 e" regB [6] $end
$var wire 1 f" regB [5] $end
$var wire 1 g" regB [4] $end
$var wire 1 h" regB [3] $end
$var wire 1 i" regB [2] $end
$var wire 1 j" regB [1] $end
$var wire 1 k" regB [0] $end
$var wire 1 l" regA [15] $end
$var wire 1 m" regA [14] $end
$var wire 1 n" regA [13] $end
$var wire 1 o" regA [12] $end
$var wire 1 p" regA [11] $end
$var wire 1 q" regA [10] $end
$var wire 1 r" regA [9] $end
$var wire 1 s" regA [8] $end
$var wire 1 t" regA [7] $end
$var wire 1 u" regA [6] $end
$var wire 1 v" regA [5] $end
$var wire 1 w" regA [4] $end
$var wire 1 x" regA [3] $end
$var wire 1 y" regA [2] $end
$var wire 1 z" regA [1] $end
$var wire 1 {" regA [0] $end
$upscope $end
$upscope $end
$enddefinitions $end
#0
$dumpvars
b10 !
b10 "
0#
1$
1%
0&
06
05
04
03
02
01
00
0/
0.
0-
0,
0+
0*
0)
0(
0'
x7
08
19
x:
1;
1<
1=
0>
0?
0@
0A
0B
0C
0D
0E
0F
0G
0H
0I
0J
0K
0L
0M
0N
0O
0P
1Q
1R
0S
1T
1U
0V
1W
1X
1Y
0Z
0[
1\
0]
0^
1_
0`
0a
0b
1c
0d
0e
0f
0g
1h
0i
0j
0k
0l
1m
0n
0o
0p
0q
1r
1s
0t
0u
0v
1w
0x
0y
0z
0{
1|
1}
0~
0!!
1"!
0#!
0$!
0%!
1&!
0'!
0(!
0)!
1*!
1+!
0,!
0-!
0.!
1/!
00!
01!
02!
13!
14!
05!
06!
07!
18!
09!
0:!
0;!
1<!
1=!
0>!
0?!
0@!
0A!
0B!
1C!
0D!
0E!
1F!
1G!
1H!
0I!
1J!
0K!
0L!
0M!
0N!
0O!
0P!
0Q!
0R!
0S!
0T!
0U!
0V!
0W!
0X!
1Y!
0Z!
0[!
1\!
0]!
0^!
1_!
0`!
0a!
0b!
0c!
0d!
0e!
1f!
0g!
0h!
0i!
0j!
0k!
0l!
0m!
0n!
0o!
1p!
0q!
0r!
0s!
0t!
0u!
0v!
0w!
0x!
0y!
1z!
0{!
0|!
0}!
0~!
0!"
0""
0#"
0$"
1%"
0&"
0'"
0("
0)"
0*"
0+"
0,"
1-"
0."
0/"
00"
01"
02"
03"
04"
15"
06"
07"
08"
09"
0:"
0;"
0<"
1="
0>"
0?"
0@"
0A"
0B"
0C"
0c"
0b"
0a"
0`"
0_"
0^"
0]"
0\"
0["
0Z"
0Y"
0X"
0W"
0V"
0U"
0T"
0S"
0R"
0Q"
0P"
0O"
0N"
0M"
0L"
0K"
0J"
0I"
0H"
0G"
0F"
0E"
0D"
0k"
0j"
0i"
0h"
0g"
0f"
0e"
0d"
0{"
0z"
0y"
0x"
0w"
0v"
0u"
0t"
0s"
0r"
0q"
0p"
0o"
0n"
0m"
0l"
$end
#25000
1#
1N
1O
07
#50000
0#
0N
0O
17
1c"
1b"
1a"
1`"
1V
0U
0X
0W
1Z
0Y
1]
1[
1W
1Y
0]
0[
0_
1^
0\
1_
0^
1\
1a
1`
0a
0`
0c
1b
1c
0b
1e
1d
0e
0d
0h
1f
1h
0f
1j
1i
1g
0j
0i
0g
0m
1k
1m
0k
1o
1n
1l
0o
0n
0l
0s
1p
1s
0p
1u
1t
1q
0u
0t
0q
0w
1v
1w
0v
1z
1x
0z
0x
0"!
1{
1y
1"!
0{
0y
1$!
1#!
0$!
0#!
0&!
1%!
1&!
0%!
1(!
1'!
0(!
0'!
0+!
1)!
1+!
0)!
1-!
1,!
0-!
0,!
0/!
1.!
1/!
0.!
11!
10!
01!
00!
04!
12!
14!
02!
16!
15!
06!
05!
08!
17!
18!
07!
1:!
19!
0:!
09!
0=!
1;!
1=!
0;!
1@!
1>!
0@!
0>!
0C!
1A!
1?!
1C!
0A!
0?!
1D!
1B!
0D!
0B!
1E!
0E!
#75000
1#
1N
1O
07
#100000
0#
0N
0O
17
0c"
0V
1U
0W
#125000
1#
1N
1O
07
#150000
0#
0N
0O
17
1c"
0b"
1V
0U
1X
1W
0X
0W
0Y
1Y
#175000
1#
1N
1O
07
#200000
0#
0N
0O
17
0c"
0V
1U
1X
1W
0Y
#225000
1#
1N
1O
07
#250000
0#
0N
0O
17
1c"
1b"
0a"
1V
0U
0X
0W
0Z
1Y
1W
1Z
0Y
1]
1[
0]
0[
0_
1^
0\
1_
0^
1\
1a
1`
0a
0`
0c
1b
1c
0b
1e
1d
0e
0d
0h
1f
1h
0f
1j
1i
1g
0j
0i
0g
0m
1k
1m
0k
1o
1n
1l
0o
0n
0l
0s
1p
1s
0p
1u
1t
1q
0u
0t
0q
0w
1v
1w
0v
1z
1x
0z
0x
0"!
1{
1y
1"!
0{
0y
1$!
1#!
0$!
0#!
0&!
1%!
1&!
0%!
1(!
1'!
0(!
0'!
0+!
1)!
1+!
0)!
1-!
1,!
0-!
0,!
0/!
1.!
1/!
0.!
11!
10!
01!
00!
04!
12!
14!
02!
16!
15!
06!
05!
08!
17!
18!
07!
1:!
19!
0:!
09!
0=!
1;!
1=!
0;!
1@!
1>!
0@!
0>!
0C!
1A!
1?!
1C!
0A!
0?!
1D!
1B!
0D!
0B!
1E!
0E!
#275000
1#
1N
1O
07
#300000
0#
0N
0O
17
0c"
0V
1U
0W
#325000
1#
1N
1O
07
#350000
0#
0N
0O
17
1c"
0b"
1V
0U
1~
1X
1W
0X
0W
1!!
0Z
1Y
1Z
0Y
1]
1[
0]
0[
0_
1^
0\
1_
0^
1\
1a
1`
0a
0`
0c
1b
1c
0b
1e
1d
0e
0d
0h
1f
1h
0f
1j
1i
1g
0j
0i
0g
0m
1k
1m
0k
1o
1n
1l
0o
0n
0l
0s
1p
1s
0p
1u
1t
1q
0u
0t
0q
0w
1v
1w
0v
1z
1x
0z
0x
0"!
1{
1y
1"!
0{
0y
1$!
1#!
0$!
0#!
0&!
1%!
1&!
0%!
1(!
1'!
0(!
0'!
0+!
1)!
1+!
0)!
1-!
1,!
0-!
0,!
0/!
1.!
1/!
0.!
11!
10!
01!
00!
04!
12!
14!
02!
16!
15!
06!
05!
08!
17!
18!
07!
1:!
19!
0:!
09!
0=!
1;!
1=!
0;!
1@!
1>!
0@!
0>!
0C!
1A!
1?!
1C!
0A!
0?!
1D!
1B!
0D!
0B!
1E!
0E!
#375000
1#
1N
1O
07
#400000
0#
0N
0O
17
0c"
0J!
0H!
0V
1U
1`!
1Z!
1X
1W
0Z
1Y
1]
1[
0_
1^
0\
1a
1`
0c
1b
1e
1d
0h
1f
1j
1i
1g
0m
1k
1o
1n
1l
0s
1p
1u
1t
1q
0w
1v
1z
1x
0"!
1{
1y
1$!
1#!
0&!
1%!
1(!
1'!
0+!
1)!
1-!
1,!
0/!
1.!
11!
10!
04!
12!
16!
15!
08!
17!
1:!
19!
0=!
1;!
1@!
1>!
0C!
1A!
1?!
1D!
1B!
1E!
#425000
1#
1N
1O
07
#450000
0#
0N
0O
17
1c"
1b"
1a"
0`"
1_"
1^"
1]"
1\"
1["
1Z"
1Y"
1X"
1W"
1V"
1U"
1T"
1S"
1R"
1Q"
1P"
1O"
1N"
1M"
1L"
1K"
1J"
1I"
1H"
1G"
1F"
1E"
1D"
1J!
1H!
1V
0U
0~
0X
0W
1Z
0Y
0]
0[
1_
0^
0}
0a
0`
1c
0b
0e
0d
1h
0f
0r
0j
0i
1m
0k
0o
0n
1s
0p
0|
0u
0t
1w
0v
0z
0x
1"!
0{
0*!
0$!
0#!
1&!
0%!
0(!
0'!
1+!
0)!
03!
0-!
0,!
1/!
0.!
01!
00!
14!
02!
0<!
06!
05!
18!
07!
0:!
09!
1=!
0;!
0F!
0@!
0>!
1C!
0A!
0D!
0`!
0Z!
1W
0!!
1Y
1[
1^
1\
1`
1b
1d
1f
1i
0g
1k
1n
0l
1p
1t
0q
1v
1x
1{
0y
1#!
0G!
1%!
1'!
1)!
1,!
1.!
10!
12!
15!
17!
19!
1;!
1>!
1A!
0?!
1D!
0B!
0E!
0\
1g
1l
1q
1y
1?!
1B!
1E!
#475000
1#
1N
1O
07
#500000
0#
0N
0O
17
0c"
0V
1U
0W
#525000
1#
1N
1O
07
#550000
0#
0N
0O
17
1c"
0b"
1V
0U
1X
1W
0X
0W
0Y
1Y
#575000
1#
1N
1O
07
#600000
0#
0N
0O
17
0c"
0V
1U
1X
1W
0Y
#625000
1#
1N
1O
07
#650000
0#
0N
0O
17
1c"
1b"
0a"
1V
0U
0X
0W
0Z
1Y
1W
1Z
0Y
0[
1[
1\
0\
#675000
1#
1N
1O
07
#700000
0#
0N
0O
17
0c"
0V
1U
0W
#725000
1#
1N
1O
07
#750000
0#
0N
0O
17
1c"
0b"
1V
0U
1X
1W
0X
0W
0Z
1Y
1Z
0Y
0[
1[
1\
0\
#775000
1#
1N
1O
07
#800000
0#
0N
0O
17
0c"
0V
1U
1X
1W
0Z
1Y
0[
1\
#825000
1#
1N
1O
07
#850000
0#
0N
0O
17
1c"
1b"
1a"
1`"
1V
0U
0X
0W
1Z
0Y
1]
1[
1W
1Y
0]
0[
0^
0\
1^
1\
#875000
1#
1N
1O
07
#900000
0#
0N
0O
17
0c"
0V
1U
0W
#925000
1#
1N
1O
07
#950000
0#
0N
0O
17
1c"
0b"
1V
0U
1X
1W
0X
0W
0Y
1Y
#975000
1#
1N
1O
07
